<svg width="75" height="79" viewBox="0 0 75 79" fill="none" xmlns="http://www.w3.org/2000/svg">
<path d="M61.2484 27.0263V48.114H52.8916V27.6475C52.8916 23.3388 51.096 21.1413 47.4437 21.1413C43.4287 21.1413 41.4177 23.7409 41.4177 28.8755V40.0782H33.1111V28.8755C33.1111 23.7409 31.0965 21.1413 27.0815 21.1413C23.4507 21.1413 21.6371 23.3388 21.6371 27.6475V48.114H13.2839V27.0263C13.2839 22.7176 14.384 19.2946 16.5843 16.7572C18.8539 14.2258 21.8311 12.926 25.5264 12.926C29.8036 12.926 33.0357 14.5705 35.1905 17.8559L37.2698 21.346L39.3527 17.8559C41.5074 14.5705 44.7395 12.926 49.0095 12.926C52.7013 12.926 55.6784 14.2258 57.9553 16.7572C60.1531 19.2922 61.2508 22.7152 61.2484 27.0263Z" fill="white"/>
</svg>
